…
This is a cross-wave data file with stable characteristics of individuals. See the codebook at <https://www.understandingsociety.ac.uk/documentation/mainstage/dataset-documentation/wave/xwave/datafile/xwavedat>.

See the dplyr cheetsheet: <https://github.com/rstudio/cheatsheets/blob/master/data-transformation.pdf>

Exercises.

1.  Select the variables for: sex (derived), date of bith (derived), ethnic group (racel\_dv). Also keep the cross-wave identifier (pidp) and the sample origin variable (memorig).

``` r
subset(Data, select = c("pidp", "memorig", "sex_dv", "doby_dv", "racel_dv"))
```

    ## # A tibble: 145,779 x 5
    ##     pidp memorig sex_dv doby_dv racel_dv
    ##    <dbl>   <dbl>  <dbl>   <dbl>    <dbl>
    ##  1   687       3    -20     -20        1
    ##  2  1367       3    -20     -20       15
    ##  3  2051       3    -20     -20       15
    ##  4  2727       3    -20     -20       97
    ##  5  3407       3    -20     -20        1
    ##  6  4091       3    -20     -20        1
    ##  7  4767       3    -20     -20        1
    ##  8  5451       3    -20     -20        1
    ##  9  6135       3    -20     -20        1
    ## 10  6807       3    -20     -20        1
    ## # … with 145,769 more rows

``` r
## method 1
```

``` r
select(Data, pidp, memorig, sex_dv, doby_dv, racel_dv)
```

    ## # A tibble: 145,779 x 5
    ##     pidp memorig sex_dv doby_dv racel_dv
    ##    <dbl>   <dbl>  <dbl>   <dbl>    <dbl>
    ##  1   687       3    -20     -20        1
    ##  2  1367       3    -20     -20       15
    ##  3  2051       3    -20     -20       15
    ##  4  2727       3    -20     -20       97
    ##  5  3407       3    -20     -20        1
    ##  6  4091       3    -20     -20        1
    ##  7  4767       3    -20     -20        1
    ##  8  5451       3    -20     -20        1
    ##  9  6135       3    -20     -20        1
    ## 10  6807       3    -20     -20        1
    ## # … with 145,769 more rows
…
1.  Summarise the proportion of women by birth year.

``` r
Data %>%
  mutate(women = if_else(sex_dv == 2, 1, 0)) %>% 
  group_by(doby_dv) %>% 
  summarise(
    propWomen = mean(women, na.rm = TRUE) * 100
  )
```

    ## # A tibble: 112 x 2
    ##    doby_dv propWomen
    ##      <dbl>     <dbl>
    ##  1     -20       0  
    ##  2      -9      43.2
    ##  3    1908     100  
    ##  4    1910     100  
    ##  5    1911      25  
    ##  6    1912      76.9
    ##  7    1913      72.2
    ##  8    1914      80  
    ##  9    1915      40.9
    ## 10    1916      73.8
    ## # … with 102 more rows
